 B <- 15 22
 B <- 15 22
 B <- 63 40
 B <- 63 40
 B <- 63 40
 B <- 63 40
 B <- 63 40
 B <- 63 40
 B <- 63 40
 B <- 63 40
 B <- 63 40
 B <- 72 46
 B <- 72 46
 B <- 72 46
 B <- 72 46
 B <- 72 46
 B <- 72 46
 B <- 72 46
 B <- 72 46
 B <- 72 46
 B <- 72 46
 B <- 72 46
 B <- 72 46
 B <- 72 46
 B <- 72 46
 B <- 72 46
 B <- 56 42
 B <- 72 46
 B <- 72 46
 B <- 72 46
 B <- 74 44
 B <- 74 44
 B <- 74 44
 B <- 45 32
 B <- 56 36
 B <- 56 36
 B <- 46 40
 B <- 56 36
 B <- 61 46
 B <- 56 36
 B <- 61 40
 B <- 56 36
 B <- 70 44
 B <- 76 50
 B <- 76 50
 B <- 76 50
 B <- 61 44
 B <- 87 48
 B <- 45 32
 B <- 76 50
 B <- 76 50
 B <- 76 50
 B <- 76 50
 B <- 76 50
 B <- 45 32
 B <- 70 46
 B <- 45 32
 B <- 45 32
 B <- 62 42
 B <- 45 32
 B <- 45 32
 B <- 45 32
 B <- 80 48
 B <- 93 48
 B <- 93 48
 B <- 93 48
 B <- 45 32
 B <- 45 32
 B <- 45 32
 B <- 63 42
 B <- 63 42
 B <- 68 44
 B <- 63 42
 B <- 84 54
 B <- 63 42
 B <- 22 22
 B <- 63 42
 B <- 63 42
 B <- 63 42
 B <- 52 44
 B <- 63 42
 B <- 72 58
 B <- 63 42
 B <- 90 44
 B <- 52 44
 B <- 77 46
 B <- 63 42
 B <- 73 42
 B <- 52 44
 B <- 90 52
 B <- 52 44
 B <- 79 46
 B <- 63 42
 B <- 63 42
 B <- 63 42
 B <- 63 42
 B <- 63 42
 B <- 63 42
 B <- 63 42
 B <- 63 42
 B <- 10 18
 B <- 10 18
 B <- 10 18
 B <- 10 18
 B <- 41 32
 B <- 74 42
 B <- 74 42
 B <- 74 42
 B <- 41 32
 B <- 74 46
 B <- 41 32
 B <- 41 32
 B <- 44 36
 B <- 64 44
 B <- 68 44
 B <- 41 32
 B <- 41 32
 B <- 53 40
 B <- 41 32
 B <- 41 32
 B <- 41 32
 B <- 68 44
 B <- 41 32
 B <- 83 50
 B <- 67 44
 B <- 41 32
 B <- 41 32
 B <- 67 44
 B <- 67 44
 B <- 67 44
 B <- 67 44
 B <- 67 44
 B <- 90 52
 B <- 41 32
 B <- 71 48
 B <- 67 44
 B <- 67 44
 B <- 67 44
 B <- 67 44
 B <- 84 54
 B <- 67 44
 B <- 45 36
 B <- 67 44
 B <- 31 28
 B <- 52 38
 B <- 40 36
 B <- 40 36
 B <- 40 36
 B <- 68 54
 B <- 64 46
 B <- 40 36
 B <- 36 32
 B <- 64 46
 B <- 64 46
 B <- 40 36
 B <- 57 42
 B <- 57 42
 B <- 57 42
 B <- 70 48
 B <- 40 36
 B <- 63 40
 B <- 40 36
 B <- 66 44
 B <- 63 46
 B <- 63 46
 B <- 63 46
 B <- 50 42
 B <- 27 22
 B <- 48 36
 B <- 63 46
 B <- 96 64
 B <- 63 46
 B <- 63 46
 B <- 63 46
 B <- 48 38
 B <- 63 46
 B <- 31 28
 B <- 63 46
 B <- 71 40
 B <- 63 46
 B <- 96 52
 B <- 63 46
 B <- 63 46
 B <- 63 46
 B <- 63 46
 B <- 63 46
 B <- 40 36
 B <- 63 46
 B <- 76 38
 B <- 63 46
 B <- 63 46
 B <- 63 46
 B <- 56 44
 B <- 63 46
 B <- 63 46
 B <- 63 46
 B <- 57 36
 B <- 63 38
 B <- 63 38
 B <- 63 38
 B <- 63 38
 B <- 63 38
 B <- 63 38
 B <- 63 38
 B <- 63 38
 B <- 78 52
 B <- 63 38
 B <- 63 38
 B <- 63 38
 B <- 63 38
 B <- 63 38
 B <- 93 64
 B <- 63 38
 B <- 91 56
 B <- 63 38
 B <- 63 38
 B <- 63 38
 B <- 63 38
 B <- 63 38
 B <- 59 40
 B <- 63 38
 B <- 63 38
 B <- 63 38
 B <- 63 38
 B <- 63 38
 B <- 63 38
 B <- 62 36
 B <- 73 42
 B <- 73 42
 B <- 73 42
 B <- 73 42
 B <- 77 46
 B <- 73 42
 B <- 73 42
 B <- 73 42
 B <- 73 42
 B <- 63 38
 B <- 89 54
 B <- 73 42
 B <- 86 46
 B <- 73 42
 B <- 73 42
 B <- 73 42
 B <- 73 42
 B <- 63 38
 B <- 77 46
 B <- 63 38
 B <- 95 50
 B <- 73 42
 B <- 73 42
 B <- 63 38
 B <- 63 38
 B <- 63 38
 B <- 82 50
 B <- 73 42
 B <- 81 48
 B <- 73 42
 B <- 44 32
 B <- 44 32
 B <- 44 32
 B <- 44 32
 B <- 41 36
 B <- 41 36
 B <- 41 36
 B <- 31 34
 B <- 38 30
 B <- 33 28
 B <- 38 30
 B <- 38 30
 B <- 44 36
 B <- 38 30
 B <- 67 46
 B <- 52 36
 B <- 55 34
 B <- 52 36
 B <- 63 40
 B <- 52 36
 B <- 87 50
 B <- 87 50
 B <- 87 50
 B <- 52 36
 B <- 22 22
 B <- 52 36
 B <- 84 50
 B <- 85 52
 B <- 85 52
 B <- 79 42
 B <- 85 52
 B <- 85 52
 B <- 88 48
 B <- 52 36
 B <- 52 36
 B <- 50 34
 B <- 36 30
 B <- 58 42
 B <- 58 42
 B <- 58 42
 B <- 58 42
 B <- 83 54
 B <- 58 42
 B <- 58 42
 B <- 42 34
 B <- 36 30
 B <- 49 36
 B <- 42 34
 B <- 55 40
 B <- 36 30
 B <- 19 20
 B <- 42 34
 B <- 74 40
 B <- 42 34
 B <- 70 46
 B <- 36 30
 B <- 36 30
 B <- 42 30
 B <- 36 30
 B <- 82 48
 B <- 62 48
 B <- 62 48
 B <- 62 48
 B <- 19 26
 B <- 62 48
 B <- 62 48
 B <- 62 48
 B <- 62 48
 B <- 62 48
 B <- 35 30
 B <- 62 48
 B <- 91 50
 B <- 62 48
 B <- 62 48
 B <- 62 48
 B <- 94 52
 B <- 62 48
 B <- 62 48
 B <- 62 48
 B <- 60 46
 B <- 49 36
 B <- 62 48
 B <- 77 46
 B <- 49 36
 B <- 83 50
 B <- 54 40
 B <- 49 36
 B <- 92 54
 B <- 54 40
 B <- 43 40
 B <- 49 36
 B <- 57 34
 B <- 54 40
 B <- 57 42
 B <- 58 44
 B <- 54 40
 B <- 54 40
 B <- 95 54
 B <- 54 40
 B <- 98 52
 B <- 54 40
 B <- 43 38
 B <- 54 40
 B <- 54 40
 B <- 54 40
 B <- 44 34
 B <- 44 34
 B <- 44 34
 B <- 44 34
 B <- 91 52
 B <- 77 44
 B <- 77 44
 B <- 95 56
 B <- 77 44
 B <- 77 44
 B <- 77 44
 B <- 77 44
 B <- 77 44
 B <- 77 44
 B <- 77 44
 B <- 77 44
 B <- 77 44
 B <- 77 44
 B <- 77 44
 B <- 56 36
 B <- 77 44
 B <- 77 44
 B <- 77 44
 B <- 77 44
 B <- 38 36
 B <- 38 36
 B <- 68 54
