
 516 388

 0.105490 
 0.105490 
 0.105490 
 0.105490 
 0.105490 
 0.105490 
 0.105490 
 0.105490 
 0.105490 
 0.105490 
 0.105490 
 0.105490 
 0.105490 
 0.105490 
 0.105490 
 0.105490 
 0.105490 
 0.105490 
 0.105490 
 0.105490 
 0.105490 
 0.105490 
 0.105490 
 0.105490 
 0.105490 
 0.105490 
 0.105490 
 0.105490 
 0.105490 
 0.105490 
 0.105490 
 0.105490 
 0.105490 
 0.105490 
 0.105490 
 0.105490 
 0.105490 
 0.105490 
 0.105490 
 0.105490 
 0.105490 
 0.105490 
 0.105490 
 0.105490 
 0.105490 
 0.105490 
 0.000000 
 0.708746 
 0.790089 
 0.526319 
 0.526319 
 0.781313 
 0.526319 
 0.641368 
 0.600964 
 0.526319 
 0.000000 
 0.526319 
 0.526319 
 0.526319 
 0.526319 
 0.526319 
 0.526319 
 0.526319 
 0.526319 
 0.526319 
 0.357045 
 0.526319 
 0.526319 
 0.526319 
 0.526319 
 0.526319 
 0.226820 
 0.226820 
 0.226820 
 0.226820 
 0.226820 
 0.515194 
 0.708746 
 0.065795 
 0.065795 
 0.065795 
 0.000000 
 0.000000 
 0.000000 
 0.000000 
 0.000000 
 0.000000 
 0.000000 
 0.000000 
 0.000000 
 0.000000 
 0.000000 
 0.000000 
 0.000000 
 0.000000 
 0.000000 
 0.000000 
 0.000000 
 0.000000 
 0.000000 
 0.000000 
 0.000000 
 0.000000 
 0.000000 
 0.000000 
 0.000000 
 0.000000 
 0.000000 
 0.000000 
 0.000000 
 0.000000 
 0.000000 
 0.000000 
 0.000000 
 0.000000 
 0.000000 
 0.000000 
 0.000000 
 0.000000 
 0.000000 
 0.000000 
 0.000000 
 0.000000 
 0.000000 
 0.000000 
 0.000000 
 0.000000 
 0.000000 
 0.000000 
 0.000000 
 0.000000 
 0.000000 
 0.000000 
 0.000000 
 0.000000 
 0.000000 
 0.000000 
 0.000000 
 0.000000 
 0.000000 
 0.000000 
 0.000000 
 0.000000 
 0.000000 
 0.000000 
 0.000000 
 0.000000 
 0.000000 
 0.000000 
 0.000000 
 0.000000 
 0.000000 
 0.000000 
 0.000000 
 0.000000 
 0.000000 
 0.000000 
 0.000000 
 0.000000 
 0.000000 
 0.000000 
 0.000000 
 0.000000 
 0.000000 
 0.000000 
 0.000000 
 0.000000 
 0.000000 
 0.000000 
 0.000000 
 0.000000 
 0.000000 
 0.000000 
 0.000000 
 0.000000 
 0.000000 
 0.000000 
 0.000000 
 0.000000 
 0.000000 
 0.000000 
 0.000000 
 0.000000 
 0.000000 
 0.000000 
 0.000000 
 0.000000 
 0.000000 
 0.000000 
 0.000000 
 0.000000 
 0.000000 
 0.000000 
 0.000000 
 0.000000 
 0.000000 
 0.000000 
 0.000000 
 0.000000 
 0.000000 
 0.000000 
 0.000000 
 0.000000 
 0.000000 
 0.000000 
 0.000000 
 0.000000 
 0.000000 
 0.000000 
 0.000000 
 0.000000 
 0.000000 
 0.000000 
 0.000000 
 0.000000 
 0.000000 
 0.000000 
 0.000000 
 0.000000 
 0.000000 
 0.000000 
 0.000000 
 0.000000 
 0.000000 
 0.000000 
 0.000000 
 0.000000 
 0.000000 
 0.124342 
 0.000000 
 0.000000 
 0.000000 
 0.000000 
 0.000000 
 0.000000 
 0.000000 
 0.000000 
 0.000000 
 0.000000 
 0.000000 
 0.000000 
 0.000000 
 0.000000 
 0.000000 
 0.000000 
 0.000000 
 0.000000 
 0.000000 
 0.000000 
 0.000000 
 0.000000 
 0.000000 
 0.000000 
 0.000000 
 0.000000 
 0.000000 
 0.000000 
 0.000000 
 0.000000 
 0.000000 
 0.000000 
 0.000000 
 0.000000 
 0.000000 
 0.000000 
 0.000000 
 0.000000 
 0.000000 
 0.000000 
 0.000000 
 0.000000 
 0.000000 
 0.000000 
 0.000000 
 0.000000 
 0.000000 
 0.000000 
 0.000000 
 0.000000 
 0.000000 
 0.000000 
 0.000000 
 0.000000 
 0.000000 
 0.000000 
 0.000000 
 0.000000 
 0.000000 
 0.000000 
 0.000000 
 0.000000 
 0.000000 
 0.000000 
 0.000000 
 0.000000 
 0.000000 
 0.000000 
 0.000000 
 0.000000 
 0.000000 
 0.000000 
 0.000000 
 0.000000 
 0.000000 
 0.000000 
 0.000000 
 0.000000 
 0.000000 
 0.000000 
 0.000000 
 0.000000 
 0.000000 
 0.000000 
 0.000000 
 0.000000 
 0.000000 
 0.000000 
 0.000000 
 0.000000 
 0.000000 
 0.000000 
 0.000000 
 0.000000 
 0.000000 
 0.000000 
 0.000000 
 0.000000 
 0.000000 
 0.000000 
 0.000000 
 0.000000 
 0.000000 
 0.000000 
 0.481036 
 0.481036 
 0.515194 
 0.481036 
 0.226820 
 0.515194 
 0.590622 
 0.481036 
 0.481036 
 0.481036 
 0.301886 
 0.481036 
 0.481036 
 0.481036 
 0.481036 
 0.481036 
 0.481036 
 0.481036 
 0.481036 
 0.124342 
 0.745571 
 0.469374 
 0.469374 
 0.469374 
 0.469374 
 0.469374 
 0.469374 
 0.469374 
 0.469374 
 0.469374 
 0.866489 
 0.469374 
 0.469374 
 0.469374 
 0.469374 
 0.469374 
 0.481036 
 0.301886 
 0.301886 
 0.301886 
 0.301886 
 0.301886 
 0.301886 
 0.301886 
 0.301886 
 0.105490 
 0.301886 
 0.301886 
 0.301886 
 0.272772 
 0.301886 
 0.242467 
 0.301886 
 0.301886 
 0.301886 
 0.022910 
 0.301886 
 0.301886 
 0.301886 
 0.301886 
 0.301886 
 0.301886 
 0.396109 
 0.301886 
 0.301886 
 0.301886 
 0.301886 
 0.718059 
 0.708746 
 0.160357 
 0.708746 
 0.708746 
 0.708746 
 0.515194 
 0.226820 
 0.515194 
 0.515194 
 0.301886 
 0.301886 
 0.242467 
 0.301886 
 0.301886 
 0.515194 
 0.481036 
 0.357045 
 0.357045 
 0.357045 
 0.160357 
 0.357045 
 0.357045 
 0.160357 
 0.160357 
 0.357045 
 0.329941 
 0.160357 
 0.357045 
 0.357045 
 0.357045 
 0.357045 
 0.651242 
 0.445605 
 0.718059 
 0.445605 
 0.445605 
 0.445605 
 0.600964 
 0.515194 
 0.445605 
 0.301886 
 0.445605 
 0.142615 
 0.600964 
 0.600964 
 0.600964 
 0.503941 
 0.600964 
 0.600964 
 0.590622 
 0.600964 
 0.226820 
 0.600964 
 0.600964 
 0.316039 
 0.421201 
 0.421201 
 0.421201 
 0.421201 
 0.421201 
 0.421201 
 0.580179 
 0.177614 
 0.421201 
 0.421201 
 0.421201 
 0.421201 
 0.421201 
 0.421201 
 0.421201 
 0.421201 
 0.421201 
 0.699359 
 0.699359 
 0.569630 
 0.651242 
 0.621353 
 0.515194 
 0.226820 
 0.226820 
 0.226820 
 0.226820 
 0.226820 
 0.515194 
 0.515194 
 0.515194 
 0.124342 
 0.124342 
 0.124342 
 0.515194 
 0.515194 
 0.124342 
 0.194421 
 0.124342 
 0.124342 
 0.670732 
 0.124342 
 0.124342 
 0.124342 
 0.124342 
 0.124342 
 0.124342 
 0.124342 
 0.124342 
 0.124342 
 0.124342 
 0.124342 
 0.124342 
 0.124342 
 0.124342 
 0.124342 
 0.124342 
 0.124342 
 0.329941 
 0.105490 
 0.105490 
 0.708746 
 0.708746 
 0.708746 
 0.708746 
 0.708746 
 0.708746 
 0.708746 
 0.708746 
 0.708746 
 0.790089 
 0.790089 
 0.790089 
 0.790089 
 0.790089 
 0.790089 
 0.790089 
 0.790089 
 0.790089 
 0.790089 
 0.790089 
 0.790089 
 0.790089 
 0.790089 
 0.790089 
 0.641368 
 0.790089 
 0.790089 
 0.790089 
 0.807462 
 0.807462 
 0.807462 
 0.526319 
 0.641368 
 0.641368 
 0.537322 
 0.641368 
 0.689895 
 0.641368 
 0.689895 
 0.641368 
 0.772474 
 0.824602 
 0.824602 
 0.824602 
 0.689895 
 0.915081 
 0.526319 
 0.824602 
 0.824602 
 0.824602 
 0.824602 
 0.824602 
 0.526319 
 0.772474 
 0.526319 
 0.526319 
 0.699359 
 0.526319 
 0.526319 
 0.526319 
 0.858217 
 0.962025 
 0.962025 
 0.962025 
 0.526319 
 0.526319 
 0.526319 
 0.708746 
 0.708746 
 0.754604 
 0.708746 
 0.891002 
 0.708746 
 0.226820 
 0.708746 
 0.708746 
 0.708746 
 0.600964 
 0.708746 
 0.790089 
 0.708746 
 0.938749 
 0.600964 
 0.833087 
 0.708746 
 0.798805 
 0.600964 
 0.938749 
 0.600964 
 0.849893 
 0.708746 
 0.708746 
 0.708746 
 0.708746 
 0.708746 
 0.708746 
 0.708746 
 0.708746 
 0.000000 
 0.000000 
 0.000000 
 0.000000 
 0.481036 
 0.807462 
 0.807462 
 0.807462 
 0.481036 
 0.807462 
 0.481036 
 0.481036 
 0.515194 
 0.718059 
 0.754604 
 0.481036 
 0.481036 
 0.611207 
 0.481036 
 0.481036 
 0.481036 
 0.754604 
 0.481036 
 0.882880 
 0.745571 
 0.481036 
 0.481036 
 0.745571 
 0.745571 
 0.745571 
 0.745571 
 0.745571 
 0.938749 
 0.481036 
 0.781313 
 0.745571 
 0.745571 
 0.745571 
 0.745571 
 0.891002 
 0.745571 
 0.526319 
 0.745571 
 0.357045 
 0.600964 
 0.469374 
 0.469374 
 0.469374 
 0.754604 
 0.718059 
 0.469374 
 0.421201 
 0.718059 
 0.718059 
 0.469374 
 0.651242 
 0.651242 
 0.651242 
 0.772474 
 0.469374 
 0.708746 
 0.469374 
 0.736470 
 0.708746 
 0.708746 
 0.708746 
 0.580179 
 0.301886 
 0.558973 
 0.708746 
 0.984929 
 0.708746 
 0.708746 
 0.708746 
 0.558973 
 0.708746 
 0.357045 
 0.708746 
 0.781313 
 0.708746 
 0.984929 
 0.708746 
 0.708746 
 0.708746 
 0.708746 
 0.708746 
 0.469374 
 0.708746 
 0.824602 
 0.708746 
 0.708746 
 0.708746 
 0.641368 
 0.708746 
 0.708746 
 0.708746 
 0.651242 
 0.708746 
 0.708746 
 0.708746 
 0.708746 
 0.708746 
 0.708746 
 0.708746 
 0.708746 
 0.841517 
 0.708746 
 0.708746 
 0.708746 
 0.708746 
 0.708746 
 0.962025 
 0.708746 
 0.946550 
 0.708746 
 0.708746 
 0.708746 
 0.708746 
 0.708746 
 0.670732 
 0.708746 
 0.708746 
 0.708746 
 0.708746 
 0.708746 
 0.708746 
 0.699359 
 0.798805 
 0.798805 
 0.798805 
 0.798805 
 0.833087 
 0.798805 
 0.798805 
 0.798805 
 0.798805 
 0.708746 
 0.930904 
 0.798805 
 0.907102 
 0.798805 
 0.798805 
 0.798805 
 0.798805 
 0.708746 
 0.833087 
 0.708746 
 0.977335 
 0.798805 
 0.798805 
 0.708746 
 0.708746 
 0.708746 
 0.874709 
 0.798805 
 0.866489 
 0.798805 
 0.515194 
 0.515194 
 0.515194 
 0.515194 
 0.481036 
 0.481036 
 0.481036 
 0.357045 
 0.445605 
 0.383287 
 0.445605 
 0.445605 
 0.515194 
 0.445605 
 0.745571 
 0.600964 
 0.631406 
 0.600964 
 0.708746 
 0.600964 
 0.915081 
 0.915081 
 0.915081 
 0.600964 
 0.226820 
 0.600964 
 0.891002 
 0.899075 
 0.899075 
 0.849893 
 0.899075 
 0.899075 
 0.923015 
 0.600964 
 0.600964 
 0.580179 
 0.421201 
 0.661029 
 0.661029 
 0.661029 
 0.661029 
 0.882880 
 0.661029 
 0.661029 
 0.492557 
 0.421201 
 0.569630 
 0.492557 
 0.631406 
 0.421201 
 0.177614 
 0.492557 
 0.807462 
 0.492557 
 0.772474 
 0.421201 
 0.421201 
 0.492557 
 0.421201 
 0.874709 
 0.699359 
 0.699359 
 0.699359 
 0.177614 
 0.699359 
 0.699359 
 0.699359 
 0.699359 
 0.699359 
 0.408745 
 0.699359 
 0.946550 
 0.699359 
 0.699359 
 0.699359 
 0.969700 
 0.699359 
 0.699359 
 0.699359 
 0.680353 
 0.569630 
 0.699359 
 0.833087 
 0.569630 
 0.882880 
 0.621353 
 0.569630 
 0.954309 
 0.621353 
 0.503941 
 0.569630 
 0.651242 
 0.621353 
 0.651242 
 0.661029 
 0.621353 
 0.621353 
 0.977335 
 0.621353 
 1.000000 
 0.621353 
 0.503941 
 0.621353 
 0.621353 
 0.621353 
 0.515194 
 0.515194 
 0.515194 
 0.515194 
 0.946550 
 0.833087 
 0.833087 
 0.977335 
 0.833087 
 0.833087 
 0.833087 
 0.833087 
 0.833087 
 0.833087 
 0.833087 
 0.833087 
 0.833087 
 0.833087 
 0.833087 
 0.641368 
 0.833087 
 0.833087 
 0.833087 
 0.833087 
 0.445605 
 0.445605 